Datenmanipulation mit R
…
Select III

Select hat auch einige Hilfsfunktionen, um mehrere Variablen auszuwählen, welche über die Hilfefunktion betrachtet werden können.

?select_helpers

Select IV

Wenn wir nur mit den Visumbefreiungen und -restriktionen arbeiten wollen, ließe sich dies z.B. so arrangieren:

select(visa.df, c(ends_with("degree"), name))

## # A tibble: 166 x 3
##    indegree outdegree        name
##       <dbl>     <dbl>       <chr>
##  1        1         0 Afghanistan
##  2       12        47     Albania
##  3       10         8     Algeria
##  4        5         1      Angola
##  5       69        67   Argentina
##  6       14        10     Armenia
##  7       71         0   Australia
##  8       76        58     Austria
##  9       14        10  Azerbaijan
## 10       20         5     Bahrain
## # ... with 156 more rows

Arrange

Häufig möchten wir erfahren, welche Fälle die höchsten/niedrigsten Werte bzgl. einer Variable besitzen. Welche Bürger “genießen” die geringste/größte Reisefreiheit?

arrange(visa.df, indegree) # aufsteigend sortiert

## # A tibble: 166 x 11
##                 name indegree outdegree polity2  iso3        pop       hd
##                <chr>    <dbl>     <dbl>   <dbl> <chr>      <dbl>    <dbl>
##  1       Afghanistan        1         0      NA   AFG         NA       NA
##  2           Somalia        1         0       0   SOM         NA       NA
##  3          Cambodia        2         0       2   KHM  14.363586 1.725667
##  4          Ethiopia        2         2      -3   ETH  87.561814 1.281522
##  5           Myanmar        2         0      -6   MMR  51.733013 1.725378
##  6          Pakistan        2         3       6   PAK 170.043918 1.789205
##  7    Comoro Islands        3         0       9   COM   0.698695       NA
##  8   Djibouti (Rep.)        3         0       2   DJI   0.830802       NA
##  9 Equatorial Guinea        3         1      -6   GNQ   0.728710       NA
## 10           Eritrea        3         2      -7   ERI         NA       NA
## # ... with 156 more rows, and 4 more variables: cgdpe <dbl>, gdppc <dbl>,
## #   continent <chr>, region <chr>

arrange(visa.df, desc(indegree)) # absteigend sortiert

## # A tibble: 166 x 11
##                name indegree outdegree polity2  iso3       pop       hd
##               <chr>    <dbl>     <dbl>   <dbl> <chr>     <dbl>    <dbl>
##  1 Ireland (Rep.of)       82        64      10   IRL  4.617334 3.031863
##  2          Denmark       80        58      10   DNK  5.550959 3.439119
##  3           Sweden       80        58      10   SWE  9.382297 3.346539
##  4          Finland       79        58      10   FIN  5.367693 3.335679
##  5          Germany       79        58      10   DEU 80.435307 3.653333
##  6            Italy       79        58      10   ITA 59.588007 2.996690
##  7       Luxembourg       79        58      10   LUX  0.507889 3.186408
##  8          Belgium       78        58       8   BEL 10.929978 3.092797
##  9      Netherlands       78        58      10   NLD 16.631571 3.270922
## 10           Norway       78        58      10   NOR  4.891251 3.574987
## # ... with 156 more rows, and 4 more variables: cgdpe <dbl>, gdppc <dbl>,
## #   continent <chr>, region <chr>

Irland liegt auf Platz 1. Deutschland ist aber auch sehr weit vorn zu finden.

Filter I

Filter gehört zu den wertvollsten Funktionen in dplyr. Mit Filter lassen sich Fälle ausschließen. Zum Beispiel solche, welche fehlende Fälle aufweisen oder diejenigen, die einem bestimmten Land angehören.

filter(visa.df, continent == "Europe") # Nur europäische Länder.

## # A tibble: 39 x 11
##           name indegree outdegree polity2  iso3       pop       hd
##          <chr>    <dbl>     <dbl>   <dbl> <chr>     <dbl>    <dbl>
##  1     Albania       12        47       9   ALB  2.901883 2.904078
##  2     Austria       76        58      10   AUT  8.391986 3.282888
##  3     Belarus       17        11      -7   BLR  9.492122       NA
##  4     Belgium       78        58       8   BEL 10.929978 3.092797
##  5 Bosnia Her.       14        62      NA   BIH  3.835258       NA
##  6    Bulgaria       67        58       9   BGR  7.407297 3.082860
##  7     Croatia       62        62       9   HRV  4.316425 3.229398
##  8  Czech Rep.       70        57       9   CZE 10.506617 3.636403
##  9     Denmark       80        58      10   DNK  5.550959 3.439119
## 10     Estonia       69        58       9   EST  1.332089 3.472616
## # ... with 29 more rows, and 4 more variables: cgdpe <dbl>, gdppc <dbl>,
## #   continent <chr>, region <chr>
…
Es gibt weitere logische Operatoren, welche wir aber behandeln werden, wenn wir sie benötigen.

Mutate

Mutate kann verwendet werden, um weitere variablen zu erstellen oder bestehende Variablen zu verändern. Auf diese Art habe ich z.B. die Variable gdppc erstellt (GDP per capita).

visa.df <- mutate(visa.df, gdppc = cgdpe / pop)

Interessant ist auch die Frage nach Ländern, die eine starke Differenz zwischen ausgehenden und empfangenen Visumbefreiungen haben.

visadiff <- mutate(visa.df, diff = abs(indegree - outdegree)) # (1) variable erstellen
visadiff <- arrange(visadiff, desc(diff)) # (2) Datensatz ordnen
print(select(visadiff, name, diff, outdegree, indegree), n = 5) # (3) Top-5 anzeigen

## # A tibble: 166 x 4
##        name  diff outdegree indegree
##       <chr> <dbl>     <dbl>    <dbl>
## 1     Haiti   156       162        6
## 2   Ecuador   138       157       19
## 3 Australia    71         0       71
## 4      Fiji    62        82       20
## 5    Brunei    56         1       57
## # ... with 161 more rows
…
