Session 5 - The Layered Grammar of Graphics
…
Ein guter Startpunkt:

nobel %>%
  filter(gender != "org") %>%
  group_by(year, gender) %>%
  summarise(count = n()) %>%
  print(n = 5)

## # A tibble: 152 x 3
## # Groups:   year [?]
##    year gender count
##   <int>  <chr> <int>
## 1  1901   male     6
## 2  1902   male     7
## 3  1903 female     1
## 4  1903   male     6
## 5  1904   male     5
## # ... with 147 more rows
…
